Modeling: Diabetes Health Indicators
…
m_data <- d_data |> select(dia_ind, bmi, smoker, phys_act, fruits, veggies, alcohol, sex, age)

Split Data

Split data into training and test sets, create folds for cross-validation (CV).

Split data into training and test sets:

set.seed(50)
m_split <- initial_split(m_data, prop = 0.7, strata = dia_ind)
m_train <- training(m_split)
m_test <- testing(m_split)
m_train #take a look

# A tibble: 177,575 × 9
   dia_ind    bmi smoker     phys_act         fruits veggies alcohol sex   age  
   <fct>    <dbl> <fct>      <fct>            <fct>  <fct>   <fct>   <fct> <fct>
 1 Diabetes    30 Smoker     No Physical Act… Fruit  Veggies Not He… Fema… Ages…
 2 Diabetes    25 Smoker     Physical Activi… Fruit  Veggies Not He… Male  Ages…
 3 Diabetes    28 Non-Smoker No Physical Act… No Fr… Veggies Not He… Fema… Ages…
 4 Diabetes    23 Smoker     Physical Activi… No Fr… No Veg… Not He… Male  Ages…
 5 Diabetes    37 Smoker     No Physical Act… No Fr… Veggies Not He… Male  Ages…
 6 Diabetes    27 Smoker     No Physical Act… Fruit  Veggies Not He… Fema… Ages…
 7 Diabetes    24 Smoker     No Physical Act… No Fr… No Veg… Not He… Fema… Ages…
 8 Diabetes    33 Smoker     No Physical Act… No Fr… Veggies Not He… Fema… Ages…
 9 Diabetes    27 Smoker     No Physical Act… No Fr… Veggies Not He… Fema… Ages…
10 Diabetes    27 Non-Smoker Physical Activi… Fruit  Veggies Not He… Fema… Ages…
# ℹ 177,565 more rows

m_test #take a look

# A tibble: 76,105 × 9
   dia_ind       bmi smoker     phys_act      fruits veggies alcohol sex   age  
   <fct>       <dbl> <fct>      <fct>         <fct>  <fct>   <fct>   <fct> <fct>
 1 No Diabetes    40 Smoker     No Physical … No Fr… Veggies Not He… Fema… Ages…
 2 No Diabetes    28 Non-Smoker No Physical … Fruit  No Veg… Not He… Fema… Ages…
 3 No Diabetes    24 Non-Smoker No Physical … No Fr… Veggies Not He… Male  Ages…
 4 No Diabetes    26 Smoker     No Physical … No Fr… Veggies Not He… Fema… Ages…
 5 No Diabetes    33 Non-Smoker Physical Act… No Fr… No Veg… Not He… Fema… Ages…
 6 No Diabetes    28 Non-Smoker No Physical … No Fr… No Veg… Heavy … Male  Ages…
 7 No Diabetes    38 Smoker     No Physical … Fruit  Veggies Not He… Fema… Ages…
 8 Diabetes       27 Non-Smoker Physical Act… Fruit  Veggies Not He… Fema… Ages…
 9 Diabetes       28 Smoker     No Physical … No Fr… Veggies Not He… Male  Ages…
10 Diabetes       34 Smoker     Physical Act… No Fr… No Veg… Not He… Fema… Ages…
# ℹ 76,095 more rows
…
